SCIDB QUERY : <load_library('linear_algebra')>
Query was executed successfully

SCIDB QUERY : <remove(GRAPH_PAIRS)>
[SciDB query execution failed. But continuing, as it was intended to just run.]

SCIDB QUERY : <create array GRAPH_PAIRS <v0:int64, v1:int64>[dummy=0:*,10000*10000,0]>
Query was executed successfully

SCIDB QUERY : <remove(GRAPH_WEIGHTS)>
[SciDB query execution failed. But continuing, as it was intended to just run.]

SCIDB QUERY : <create array  GRAPH_WEIGHTS <w:float>[v0=0:  428333,     428333/4+1,0,    v1=0:428333,    428333/4+1,0]>
Query was executed successfully

SCIDB QUERY : <load(GRAPH_PAIRS, '${TEST_DATA_DIR}/twitter_combined_unique_20k.csv', -2, 'csv')>
[Query was executed successfully, ignoring data output by this query.]

SCIDB QUERY : <store(redimension(apply(filter(GRAPH_PAIRS, v0<=428333 and v1<=428333), w, float(1.0)), GRAPH_WEIGHTS), GRAPH_WEIGHTS)>
[Query was executed successfully, ignoring data output by this query.]

SCIDB QUERY : <remove(SHORTEST_PATHS_VEC)>
[SciDB query execution failed. But continuing, as it was intended to just run.]

"shortest paths from vertex 12"
SCIDB QUERY : <scan(SHORTEST_PATHS_VEC)>
{v1,dummy} multiply
{12,0} 0
{13,0} 1
{14,0} 1
{20,0} 2
{47,0} 3
{66,0} 3
{107,0} 2
{224,0} 2
{246,0} 2
{291,0} 1
{295,0} 1
{324,0} 2
{380,0} 2
{409,0} 1
{414,0} 2
{418,0} 1
{422,0} 1
{528,0} 2
{573,0} 2
{586,0} 2
{633,0} 2
{648,0} 1
{746,0} 2
{760,0} 2
{761,0} 3
{765,0} 2
{767,0} 2
{785,0} 2
{821,0} 3
{885,0} 2
{897,0} 2
{922,0} 2
{929,0} 2
{939,0} 2
{989,0} 1
{997,0} 2
{1004,0} 3
{1075,0} 1
{1076,0} 2
{1081,0} 2
{1084,0} 2
{1186,0} 2
{1192,0} 2
{1378,0} 1
{1966,0} 2
{2038,0} 3
{2112,0} 2
{2172,0} 1
{2187,0} 3
{2372,0} 4
{2391,0} 2
{2419,0} 3
{2426,0} 2
{2565,0} 2
{2627,0} 3
{2900,0} 2
{3032,0} 2
{3302,0} 3
{3382,0} 2
{3471,0} 2
{3475,0} 1
{3476,0} 2
{3526,0} 2
{3839,0} 2
{3840,0} 2
{3860,0} 2
{4488,0} 2
{4558,0} 2
{4791,0} 2
{4816,0} 2
{4833,0} 2
{5017,0} 2
{5471,0} 2
{5517,0} 2
{5525,0} 3
{5699,0} 1
{5702,0} 2
{5827,0} 3
{5841,0} 2
{5976,0} 2
{6104,0} 3
{6140,0} 2
{6532,0} 2
{6579,0} 3
{6664,0} 2
{6735,0} 3
{6856,0} 2
{7482,0} 2
{7632,0} 2
{7846,0} 1
{8291,0} 2
{8584,0} 2
{8943,0} 2
{9027,0} 2
{10191,0} 2
{10202,0} 2
{10203,0} 3
{10213,0} 3
{10230,0} 2
{10237,0} 2
{10241,0} 2
{10350,0} 1
{10367,0} 3
{10437,0} 2
{10450,0} 2
{10519,0} 2
{10545,0} 2
{10638,0} 2
{10668,0} 3
{10725,0} 2
{10877,0} 2
{10923,0} 2
{11041,0} 2
{11113,0} 1
{11222,0} 2
{11250,0} 2
{11489,0} 4
{11541,0} 3
{11628,0} 2
{11661,0} 2
{11677,0} 2
{11682,0} 2
{11718,0} 2
{11752,0} 2
{11818,0} 3
{11866,0} 3
{11969,0} 2
{12028,0} 3
{12108,0} 2
{12158,0} 2
{12161,0} 2
{12196,0} 2
{12249,0} 2
{12376,0} 3
{12491,0} 2
{12496,0} 2
{12497,0} 3
{12512,0} 4
{12513,0} 3
{12514,0} 3
{12528,0} 2
{12530,0} 4
{12534,0} 2
{12539,0} 3
{12555,0} 3
{12587,0} 2
{12591,0} 2
{12616,0} 3
{12707,0} 2
{12715,0} 2
{12741,0} 2
{12773,0} 2
{12815,0} 2
{12830,0} 2
{12831,0} 3
{12916,0} 4
{12925,0} 2
{12938,0} 2
{13029,0} 2
{13035,0} 3
{13046,0} 2
{13055,0} 3
{13116,0} 3
{13124,0} 3
{13165,0} 3
{13166,0} 2
{13234,0} 2
{13260,0} 3
{13341,0} 2
{13348,0} 1
{13405,0} 3
{13420,0} 2
{13461,0} 2
{13479,0} 2
{13567,0} 2
{14013,0} 3
{14503,0} 2
{14733,0} 3
{14763,0} 2
{15023,0} 3
{15153,0} 2
{15403,0} 3
{15913,0} 2
{16023,0} 2
{16133,0} 2
{17313,0} 2
{17673,0} 2
{18713,0} 1
{18883,0} 2
{19223,0} 3
{19903,0} 3
{19983,0} 3
{20783,0} 2
{21203,0} 2
{21393,0} 3
{21633,0} 3
{22253,0} 2
{22453,0} 2
{24763,0} 3
{24773,0} 3
{25993,0} 3
{26743,0} 2
{28163,0} 2
{30863,0} 2
{30923,0} 2
{30973,0} 2
{31393,0} 2
{32823,0} 3
{33063,0} 2
{33233,0} 2
{33363,0} 2
{33423,0} 2
{33633,0} 3
{33883,0} 2
{33923,0} 2
{34163,0} 2
{34543,0} 3
{35233,0} 2
{35293,0} 2
{35383,0} 3
{35623,0} 2
{35943,0} 2
{36183,0} 1
{36253,0} 2
{36823,0} 1
{36963,0} 3
{38073,0} 3
{41553,0} 2
{41693,0} 2
{41713,0} 2
{43083,0} 3
{43273,0} 2
{43553,0} 2
{45673,0} 2
{46023,0} 2
{48263,0} 2
{48443,0} 3
{48473,0} 4
{48903,0} 3
{49583,0} 2
{49793,0} 1
{50373,0} 4
{51123,0} 3
{51303,0} 3
{51573,0} 1
{55963,0} 3
{56623,0} 3
{57433,0} 3
{58063,0} 3
{58213,0} 5
{60033,0} 3
{60273,0} 2
{60463,0} 2
{61133,0} 1
{68003,0} 2
{71573,0} 2
{72373,0} 2
{72903,0} 3
{74233,0} 3
{74523,0} 2
{74673,0} 2
{75093,0} 2
{76093,0} 2
{76133,0} 2
{77483,0} 3
{78453,0} 2
{78813,0} 2
{82243,0} 2
{82433,0} 2
{82533,0} 2
{92623,0} 2
{99843,0} 2
{113963,0} 2
{128163,0} 3
{143303,0} 2
{145313,0} 3
{148943,0} 4
{151933,0} 2
{174853,0} 3
{202003,0} 2
{229523,0} 2
{253973,0} 2
{254073,0} 2
{279713,0} 3
{286703,0} 5
{287713,0} 3
{305413,0} 3
{328073,0} 3
{356663,0} 2
{389153,0} 2
{409823,0} 2
{421683,0} 2
{425793,0} 2
{428333,0} 1

SCIDB QUERY : <remove(GRAPH_PAIRS)>
Query was executed successfully

SCIDB QUERY : <remove(GRAPH_WEIGHTS)>
Query was executed successfully

SCIDB QUERY : <remove(SHORTEST_PATHS_VEC)>
Query was executed successfully

