SCIDB QUERY : <create array Ts_rle <a:int64 null compression 'rle'> [x=-2:3,2,1]>
Query was executed successfully

SCIDB QUERY : <create array Ts_d <a:int64 null compression 'dictionary'> [x=-2:3,2,1]>
Query was executed successfully

SCIDB QUERY : <create array Ts_ns <a:int64 null compression 'null suppression'> [x=-2:3,2,1]>
Query was executed successfully

SCIDB QUERY : <create array Ts_be <a:int64 null compression 'bitmap encoding'> [x=-2:3,2,1]>
Query was executed successfully

SCIDB QUERY : <create array Ts_z <a:int64 null compression 'zlib'> [x=-2:3,2,1]>
Query was executed successfully

SCIDB QUERY : <create array Ts_bz <a:int64 null compression 'bzlib'> [x=-2:3,2,1]>
Query was executed successfully

SCIDB QUERY : <create array Ts_nf <a:int64 null compression 'null filter'> [x=-2:3,2,1]>
Query was executed successfully

SCIDB QUERY : <create array eTs_rle <a:int64 null compression 'rle'> [x=-2:3,2,1]>
Query was executed successfully

SCIDB QUERY : <create array eTs_d <a:int64 null compression 'dictionary'> [x=-2:3,2,1]>
Query was executed successfully

SCIDB QUERY : <create array eTs_ns <a:int64 null compression 'null suppression'> [x=-2:3,2,1]>
Query was executed successfully

SCIDB QUERY : <create array eTs_be <a:int64 null compression 'bitmap encoding'> [x=-2:3,2,1]>
Query was executed successfully

SCIDB QUERY : <create array eTs_z <a:int64 null compression 'zlib'> [x=-2:3,2,1]>
Query was executed successfully

SCIDB QUERY : <create array eTs_bz <a:int64 null compression 'bzlib'> [x=-2:3,2,1]>
Query was executed successfully

SCIDB QUERY : <create array eTs_nf <a:int64 null compression 'null filter'> [x=-2:3,2,1]>
Query was executed successfully

SCIDB QUERY : <create array dTs_rle <a:int64 null default 2 compression 'rle'> [x=-2:3,2,1]>
Query was executed successfully

SCIDB QUERY : <create array dTs_d <a:int64 null default 2 compression 'dictionary'> [x=-2:3,2,1]>
Query was executed successfully

SCIDB QUERY : <create array dTs_ns <a:int64 null default 2 compression 'null suppression'> [x=-2:3,2,1]>
Query was executed successfully

SCIDB QUERY : <create array dTs_be <a:int64 null default 2 compression 'bitmap encoding'> [x=-2:3,2,1]>
Query was executed successfully

SCIDB QUERY : <create array dTs_z <a:int64 null default 2 compression 'zlib'> [x=-2:3,2,1]>
Query was executed successfully

SCIDB QUERY : <create array dTs_bz <a:int64 null default 2 compression 'bzlib'> [x=-2:3,2,1]>
Query was executed successfully

SCIDB QUERY : <create array dTs_nf <a:int64 null default 2 compression 'null filter'> [x=-2:3,2,1]>
Query was executed successfully

SCIDB QUERY : <create array edTs_rle <a:int64 null default 2 compression 'rle'> [x=-2:3,2,1]>
Query was executed successfully

SCIDB QUERY : <create array edTs_d <a:int64 null default 2 compression 'dictionary'> [x=-2:3,2,1]>
Query was executed successfully

SCIDB QUERY : <create array edTs_ns <a:int64 null default 2 compression 'null suppression'> [x=-2:3,2,1]>
Query was executed successfully

SCIDB QUERY : <create array edTs_be <a:int64 null default 2 compression 'bitmap encoding'> [x=-2:3,2,1]>
Query was executed successfully

SCIDB QUERY : <create array edTs_z <a:int64 null default 2 compression 'zlib'> [x=-2:3,2,1]>
Query was executed successfully

SCIDB QUERY : <create array edTs_bz <a:int64 null default 2 compression 'bzlib'> [x=-2:3,2,1]>
Query was executed successfully

SCIDB QUERY : <create array edTs_nf <a:int64 null default 2 compression 'null filter'> [x=-2:3,2,1]>
Query was executed successfully

SCIDB QUERY : <create array Ts_rle2 <a:int64 null compression 'rle'> [x=-2:3,2,1]>
Query was executed successfully

SCIDB QUERY : <create array Ts_d2 <a:int64 null compression 'dictionary'> [x=-2:3,2,1]>
Query was executed successfully

SCIDB QUERY : <create array Ts_ns2 <a:int64 null compression 'null suppression'> [x=-2:3,2,1]>
Query was executed successfully

SCIDB QUERY : <create array Ts_be2 <a:int64 null compression 'bitmap encoding'> [x=-2:3,2,1]>
Query was executed successfully

SCIDB QUERY : <create array Ts_z2 <a:int64 null compression 'zlib'> [x=-2:3,2,1]>
Query was executed successfully

SCIDB QUERY : <create array Ts_bz2 <a:int64 null compression 'bzlib'> [x=-2:3,2,1]>
Query was executed successfully

SCIDB QUERY : <create array Ts_nf2 <a:int64 null compression 'null filter'> [x=-2:3,2,1]>
Query was executed successfully

SCIDB QUERY : <create array eTs_rle2 <a:int64 null compression 'rle'> [x=-2:3,2,1]>
Query was executed successfully

SCIDB QUERY : <create array eTs_d2 <a:int64 null compression 'dictionary'> [x=-2:3,2,1]>
Query was executed successfully

SCIDB QUERY : <create array eTs_ns2 <a:int64 null compression 'null suppression'> [x=-2:3,2,1]>
Query was executed successfully

SCIDB QUERY : <create array eTs_be2 <a:int64 null compression 'bitmap encoding'> [x=-2:3,2,1]>
Query was executed successfully

SCIDB QUERY : <create array eTs_z2 <a:int64 null compression 'zlib'> [x=-2:3,2,1]>
Query was executed successfully

SCIDB QUERY : <create array eTs_bz2 <a:int64 null compression 'bzlib'> [x=-2:3,2,1]>
Query was executed successfully

SCIDB QUERY : <create array eTs_nf2 <a:int64 null compression 'null filter'> [x=-2:3,2,1]>
Query was executed successfully

SCIDB QUERY : <create array dTs_rle2 <a:int64 null default 2 compression 'rle'> [x=-2:3,2,1]>
Query was executed successfully

SCIDB QUERY : <create array dTs_d2 <a:int64 null default 2 compression 'dictionary'> [x=-2:3,2,1]>
Query was executed successfully

SCIDB QUERY : <create array dTs_ns2 <a:int64 null default 2 compression 'null suppression'> [x=-2:3,2,1]>
Query was executed successfully

SCIDB QUERY : <create array dTs_be2 <a:int64 null default 2 compression 'bitmap encoding'> [x=-2:3,2,1]>
Query was executed successfully

SCIDB QUERY : <create array dTs_z2 <a:int64 null default 2 compression 'zlib'> [x=-2:3,2,1]>
Query was executed successfully

SCIDB QUERY : <create array dTs_bz2 <a:int64 null default 2 compression 'bzlib'> [x=-2:3,2,1]>
Query was executed successfully

SCIDB QUERY : <create array dTs_nf2 <a:int64 null default 2 compression 'null filter'> [x=-2:3,2,1]>
Query was executed successfully

SCIDB QUERY : <create array edTs_rle2 <a:int64 null default 2 compression 'rle'> [x=-2:3,2,1]>
Query was executed successfully

SCIDB QUERY : <create array edTs_d2 <a:int64 null default 2 compression 'dictionary'> [x=-2:3,2,1]>
Query was executed successfully

SCIDB QUERY : <create array edTs_ns2 <a:int64 null default 2 compression 'null suppression'> [x=-2:3,2,1]>
Query was executed successfully

SCIDB QUERY : <create array edTs_be2 <a:int64 null default 2 compression 'bitmap encoding'> [x=-2:3,2,1]>
Query was executed successfully

SCIDB QUERY : <create array edTs_z2 <a:int64 null default 2 compression 'zlib'> [x=-2:3,2,1]>
Query was executed successfully

SCIDB QUERY : <create array edTs_bz2 <a:int64 null default 2 compression 'bzlib'> [x=-2:3,2,1]>
Query was executed successfully

SCIDB QUERY : <create array edTs_nf2 <a:int64 null default 2 compression 'null filter'> [x=-2:3,2,1]>
Query was executed successfully

SCIDB QUERY : <load Ts_rle from '${TEST_DATA_DIR}/null_11.txt'>
{x} a
{-2} null
{0} ?2
{2} null

SCIDB QUERY : <load Ts_d from '${TEST_DATA_DIR}/null_11.txt'>
{x} a
{-2} null
{0} ?2
{2} null

SCIDB QUERY : <load Ts_ns from '${TEST_DATA_DIR}/null_11.txt'>
{x} a
{-2} null
{0} ?2
{2} null

SCIDB QUERY : <load Ts_be from '${TEST_DATA_DIR}/null_11.txt'>
{x} a
{-2} null
{0} ?2
{2} null

SCIDB QUERY : <load Ts_z from '${TEST_DATA_DIR}/null_11.txt'>
{x} a
{-2} null
{0} ?2
{2} null

SCIDB QUERY : <load Ts_bz from '${TEST_DATA_DIR}/null_11.txt'>
{x} a
{-2} null
{0} ?2
{2} null

SCIDB QUERY : <load Ts_nf from '${TEST_DATA_DIR}/null_11.txt'>
{x} a
{-2} null
{0} ?2
{2} null

SCIDB QUERY : <load dTs_rle from '${TEST_DATA_DIR}/null_11.txt'>
{x} a
{-2} null
{0} ?2
{2} null

SCIDB QUERY : <load dTs_d from '${TEST_DATA_DIR}/null_11.txt'>
{x} a
{-2} null
{0} ?2
{2} null

SCIDB QUERY : <load dTs_ns from '${TEST_DATA_DIR}/null_11.txt'>
{x} a
{-2} null
{0} ?2
{2} null

SCIDB QUERY : <load dTs_be from '${TEST_DATA_DIR}/null_11.txt'>
{x} a
{-2} null
{0} ?2
{2} null

SCIDB QUERY : <load dTs_z from '${TEST_DATA_DIR}/null_11.txt'>
{x} a
{-2} null
{0} ?2
{2} null

SCIDB QUERY : <load dTs_bz from '${TEST_DATA_DIR}/null_11.txt'>
{x} a
{-2} null
{0} ?2
{2} null

SCIDB QUERY : <load dTs_nf from '${TEST_DATA_DIR}/null_11.txt'>
{x} a
{-2} null
{0} ?2
{2} null

SCIDB QUERY : <load eTs_rle from '${TEST_DATA_DIR}/null_15.txt'>
{x} a
{-2} null
{0} ?2
{1} null
{2} null
{3} null

SCIDB QUERY : <load eTs_d from '${TEST_DATA_DIR}/null_15.txt'>
{x} a
{-2} null
{0} ?2
{1} null
{2} null
{3} null

SCIDB QUERY : <load eTs_ns from '${TEST_DATA_DIR}/null_15.txt'>
{x} a
{-2} null
{0} ?2
{1} null
{2} null
{3} null

SCIDB QUERY : <load eTs_be from '${TEST_DATA_DIR}/null_15.txt'>
{x} a
{-2} null
{0} ?2
{1} null
{2} null
{3} null

SCIDB QUERY : <load eTs_z from '${TEST_DATA_DIR}/null_15.txt'>
{x} a
{-2} null
{0} ?2
{1} null
{2} null
{3} null

SCIDB QUERY : <load eTs_bz from '${TEST_DATA_DIR}/null_15.txt'>
{x} a
{-2} null
{0} ?2
{1} null
{2} null
{3} null

SCIDB QUERY : <load eTs_nf from '${TEST_DATA_DIR}/null_15.txt'>
{x} a
{-2} null
{0} ?2
{1} null
{2} null
{3} null

SCIDB QUERY : <load edTs_rle from '${TEST_DATA_DIR}/null_15.txt'>
{x} a
{-2} null
{0} ?2
{1} 2
{2} null
{3} 2

SCIDB QUERY : <load edTs_d from '${TEST_DATA_DIR}/null_15.txt'>
{x} a
{-2} null
{0} ?2
{1} 2
{2} null
{3} 2

SCIDB QUERY : <load edTs_ns from '${TEST_DATA_DIR}/null_15.txt'>
{x} a
{-2} null
{0} ?2
{1} 2
{2} null
{3} 2

SCIDB QUERY : <load edTs_be from '${TEST_DATA_DIR}/null_15.txt'>
{x} a
{-2} null
{0} ?2
{1} 2
{2} null
{3} 2

SCIDB QUERY : <load edTs_z from '${TEST_DATA_DIR}/null_15.txt'>
{x} a
{-2} null
{0} ?2
{1} 2
{2} null
{3} 2

SCIDB QUERY : <load edTs_bz from '${TEST_DATA_DIR}/null_15.txt'>
{x} a
{-2} null
{0} ?2
{1} 2
{2} null
{3} 2

SCIDB QUERY : <load edTs_nf from '${TEST_DATA_DIR}/null_15.txt'>
{x} a
{-2} null
{0} ?2
{1} 2
{2} null
{3} 2

SCIDB QUERY : <load Ts_rle2 from '${TEST_DATA_DIR}/null_12.txt'>
{x} a
{-1} ?2
{0} null
{3} null

SCIDB QUERY : <load Ts_d2 from '${TEST_DATA_DIR}/null_12.txt'>
{x} a
{-1} ?2
{0} null
{3} null

SCIDB QUERY : <load Ts_ns2 from '${TEST_DATA_DIR}/null_12.txt'>
{x} a
{-1} ?2
{0} null
{3} null

SCIDB QUERY : <load Ts_be2 from '${TEST_DATA_DIR}/null_12.txt'>
{x} a
{-1} ?2
{0} null
{3} null

SCIDB QUERY : <load Ts_z2 from '${TEST_DATA_DIR}/null_12.txt'>
{x} a
{-1} ?2
{0} null
{3} null

SCIDB QUERY : <load Ts_bz2 from '${TEST_DATA_DIR}/null_12.txt'>
{x} a
{-1} ?2
{0} null
{3} null

SCIDB QUERY : <load Ts_nf2 from '${TEST_DATA_DIR}/null_12.txt'>
{x} a
{-1} ?2
{0} null
{3} null

SCIDB QUERY : <load dTs_rle2 from '${TEST_DATA_DIR}/null_12.txt'>
{x} a
{-1} ?2
{0} null
{3} null

SCIDB QUERY : <load dTs_d2 from '${TEST_DATA_DIR}/null_12.txt'>
{x} a
{-1} ?2
{0} null
{3} null

SCIDB QUERY : <load dTs_ns2 from '${TEST_DATA_DIR}/null_12.txt'>
{x} a
{-1} ?2
{0} null
{3} null

SCIDB QUERY : <load dTs_be2 from '${TEST_DATA_DIR}/null_12.txt'>
{x} a
{-1} ?2
{0} null
{3} null

SCIDB QUERY : <load dTs_z2 from '${TEST_DATA_DIR}/null_12.txt'>
{x} a
{-1} ?2
{0} null
{3} null

SCIDB QUERY : <load dTs_bz2 from '${TEST_DATA_DIR}/null_12.txt'>
{x} a
{-1} ?2
{0} null
{3} null

SCIDB QUERY : <load dTs_nf2 from '${TEST_DATA_DIR}/null_12.txt'>
{x} a
{-1} ?2
{0} null
{3} null

SCIDB QUERY : <load eTs_rle2 from '${TEST_DATA_DIR}/null_16.txt'>
{x} a
{-2} null
{-1} ?2
{0} null
{1} null
{2} null
{3} null

SCIDB QUERY : <load eTs_d2 from '${TEST_DATA_DIR}/null_16.txt'>
{x} a
{-2} null
{-1} ?2
{0} null
{1} null
{2} null
{3} null

SCIDB QUERY : <load eTs_ns2 from '${TEST_DATA_DIR}/null_16.txt'>
{x} a
{-2} null
{-1} ?2
{0} null
{1} null
{2} null
{3} null

SCIDB QUERY : <load eTs_be2 from '${TEST_DATA_DIR}/null_16.txt'>
{x} a
{-2} null
{-1} ?2
{0} null
{1} null
{2} null
{3} null

SCIDB QUERY : <load eTs_z2 from '${TEST_DATA_DIR}/null_16.txt'>
{x} a
{-2} null
{-1} ?2
{0} null
{1} null
{2} null
{3} null

SCIDB QUERY : <load eTs_bz2 from '${TEST_DATA_DIR}/null_16.txt'>
{x} a
{-2} null
{-1} ?2
{0} null
{1} null
{2} null
{3} null

SCIDB QUERY : <load eTs_nf2 from '${TEST_DATA_DIR}/null_16.txt'>
{x} a
{-2} null
{-1} ?2
{0} null
{1} null
{2} null
{3} null

SCIDB QUERY : <load edTs_rle2 from '${TEST_DATA_DIR}/null_16.txt'>
{x} a
{-2} 2
{-1} ?2
{0} null
{1} 2
{2} 2
{3} null

SCIDB QUERY : <load edTs_d2 from '${TEST_DATA_DIR}/null_16.txt'>
{x} a
{-2} 2
{-1} ?2
{0} null
{1} 2
{2} 2
{3} null

SCIDB QUERY : <load edTs_ns2 from '${TEST_DATA_DIR}/null_16.txt'>
{x} a
{-2} 2
{-1} ?2
{0} null
{1} 2
{2} 2
{3} null

SCIDB QUERY : <load edTs_be2 from '${TEST_DATA_DIR}/null_16.txt'>
{x} a
{-2} 2
{-1} ?2
{0} null
{1} 2
{2} 2
{3} null

SCIDB QUERY : <load edTs_z2 from '${TEST_DATA_DIR}/null_16.txt'>
{x} a
{-2} 2
{-1} ?2
{0} null
{1} 2
{2} 2
{3} null

SCIDB QUERY : <load edTs_bz2 from '${TEST_DATA_DIR}/null_16.txt'>
{x} a
{-2} 2
{-1} ?2
{0} null
{1} 2
{2} 2
{3} null

SCIDB QUERY : <load edTs_nf2 from '${TEST_DATA_DIR}/null_16.txt'>
{x} a
{-2} 2
{-1} ?2
{0} null
{1} 2
{2} 2
{3} null

SCIDB QUERY : <remove(Ts_rle)>
Query was executed successfully

SCIDB QUERY : <remove(Ts_d)>
Query was executed successfully

SCIDB QUERY : <remove(Ts_ns)>
Query was executed successfully

SCIDB QUERY : <remove(Ts_be)>
Query was executed successfully

SCIDB QUERY : <remove(Ts_z)>
Query was executed successfully

SCIDB QUERY : <remove(Ts_bz)>
Query was executed successfully

SCIDB QUERY : <remove(Ts_nf)>
Query was executed successfully

SCIDB QUERY : <remove(eTs_rle)>
Query was executed successfully

SCIDB QUERY : <remove(eTs_d)>
Query was executed successfully

SCIDB QUERY : <remove(eTs_ns)>
Query was executed successfully

SCIDB QUERY : <remove(eTs_be)>
Query was executed successfully

SCIDB QUERY : <remove(eTs_z)>
Query was executed successfully

SCIDB QUERY : <remove(eTs_bz)>
Query was executed successfully

SCIDB QUERY : <remove(eTs_nf)>
Query was executed successfully

SCIDB QUERY : <remove(dTs_rle)>
Query was executed successfully

SCIDB QUERY : <remove(dTs_d)>
Query was executed successfully

SCIDB QUERY : <remove(dTs_ns)>
Query was executed successfully

SCIDB QUERY : <remove(dTs_be)>
Query was executed successfully

SCIDB QUERY : <remove(dTs_z)>
Query was executed successfully

SCIDB QUERY : <remove(dTs_bz)>
Query was executed successfully

SCIDB QUERY : <remove(dTs_nf)>
Query was executed successfully

SCIDB QUERY : <remove(edTs_rle)>
Query was executed successfully

SCIDB QUERY : <remove(edTs_d)>
Query was executed successfully

SCIDB QUERY : <remove(edTs_ns)>
Query was executed successfully

SCIDB QUERY : <remove(edTs_be)>
Query was executed successfully

SCIDB QUERY : <remove(edTs_z)>
Query was executed successfully

SCIDB QUERY : <remove(edTs_bz)>
Query was executed successfully

SCIDB QUERY : <remove(edTs_nf)>
Query was executed successfully

SCIDB QUERY : <remove(Ts_rle2)>
Query was executed successfully

SCIDB QUERY : <remove(Ts_d2)>
Query was executed successfully

SCIDB QUERY : <remove(Ts_ns2)>
Query was executed successfully

SCIDB QUERY : <remove(Ts_be2)>
Query was executed successfully

SCIDB QUERY : <remove(Ts_z2)>
Query was executed successfully

SCIDB QUERY : <remove(Ts_bz2)>
Query was executed successfully

SCIDB QUERY : <remove(Ts_nf2)>
Query was executed successfully

SCIDB QUERY : <remove(eTs_rle2)>
Query was executed successfully

SCIDB QUERY : <remove(eTs_d2)>
Query was executed successfully

SCIDB QUERY : <remove(eTs_ns2)>
Query was executed successfully

SCIDB QUERY : <remove(eTs_be2)>
Query was executed successfully

SCIDB QUERY : <remove(eTs_z2)>
Query was executed successfully

SCIDB QUERY : <remove(eTs_bz2)>
Query was executed successfully

SCIDB QUERY : <remove(eTs_nf2)>
Query was executed successfully

SCIDB QUERY : <remove(dTs_rle2)>
Query was executed successfully

SCIDB QUERY : <remove(dTs_d2)>
Query was executed successfully

SCIDB QUERY : <remove(dTs_ns2)>
Query was executed successfully

SCIDB QUERY : <remove(dTs_be2)>
Query was executed successfully

SCIDB QUERY : <remove(dTs_z2)>
Query was executed successfully

SCIDB QUERY : <remove(dTs_bz2)>
Query was executed successfully

SCIDB QUERY : <remove(dTs_nf2)>
Query was executed successfully

SCIDB QUERY : <remove(edTs_rle2)>
Query was executed successfully

SCIDB QUERY : <remove(edTs_d2)>
Query was executed successfully

SCIDB QUERY : <remove(edTs_ns2)>
Query was executed successfully

SCIDB QUERY : <remove(edTs_be2)>
Query was executed successfully

SCIDB QUERY : <remove(edTs_z2)>
Query was executed successfully

SCIDB QUERY : <remove(edTs_bz2)>
Query was executed successfully

SCIDB QUERY : <remove(edTs_nf2)>
Query was executed successfully

