SCIDB QUERY : <create array Ts_rle <a:int64 null compression 'rle'> [x=-2:3,2,1,y=0:2,3,0]>
Query was executed successfully

SCIDB QUERY : <create array Ts_d <a:int64 null compression 'dictionary'> [x=-2:3,2,1,y=0:2,3,0]>
Query was executed successfully

SCIDB QUERY : <create array Ts_ns <a:int64 null compression 'null suppression'> [x=-2:3,2,1,y=0:2,3,0]>
Query was executed successfully

SCIDB QUERY : <create array Ts_be <a:int64 null compression 'bitmap encoding'> [x=-2:3,2,1,y=0:2,3,0]>
Query was executed successfully

SCIDB QUERY : <create array Ts_z <a:int64 null compression 'zlib'> [x=-2:3,2,1,y=0:2,3,0]>
Query was executed successfully

SCIDB QUERY : <create array Ts_bz <a:int64 null compression 'bzlib'> [x=-2:3,2,1,y=0:2,3,0]>
Query was executed successfully

SCIDB QUERY : <create array Ts_nf <a:int64 null compression 'null filter'> [x=-2:3,2,1,y=0:2,3,0]>
Query was executed successfully

SCIDB QUERY : <create array eTs_rle <a:int64 null compression 'rle'> [x=-2:3,2,1,y=0:2,3,0]>
Query was executed successfully

SCIDB QUERY : <create array eTs_d <a:int64 null compression 'dictionary'> [x=-2:3,2,1,y=0:2,3,0]>
Query was executed successfully

SCIDB QUERY : <create array eTs_ns <a:int64 null compression 'null suppression'> [x=-2:3,2,1,y=0:2,3,0]>
Query was executed successfully

SCIDB QUERY : <create array eTs_be <a:int64 null compression 'bitmap encoding'> [x=-2:3,2,1,y=0:2,3,0]>
Query was executed successfully

SCIDB QUERY : <create array eTs_z <a:int64 null compression 'zlib'> [x=-2:3,2,1,y=0:2,3,0]>
Query was executed successfully

SCIDB QUERY : <create array eTs_bz <a:int64 null compression 'bzlib'> [x=-2:3,2,1,y=0:2,3,0]>
Query was executed successfully

SCIDB QUERY : <create array eTs_nf <a:int64 null compression 'null filter'> [x=-2:3,2,1,y=0:2,3,0]>
Query was executed successfully

SCIDB QUERY : <create array dTs_rle <a:int64 null default 2 compression 'rle'> [x=-2:3,2,1,y=0:2,3,0]>
Query was executed successfully

SCIDB QUERY : <create array dTs_d <a:int64 null default 2 compression 'dictionary'> [x=-2:3,2,1,y=0:2,3,0]>
Query was executed successfully

SCIDB QUERY : <create array dTs_ns <a:int64 null default 2 compression 'null suppression'> [x=-2:3,2,1,y=0:2,3,0]>
Query was executed successfully

SCIDB QUERY : <create array dTs_be <a:int64 null default 2 compression 'bitmap encoding'> [x=-2:3,2,1,y=0:2,3,0]>
Query was executed successfully

SCIDB QUERY : <create array dTs_z <a:int64 null default 2 compression 'zlib'> [x=-2:3,2,1,y=0:2,3,0]>
Query was executed successfully

SCIDB QUERY : <create array dTs_bz <a:int64 null default 2 compression 'bzlib'> [x=-2:3,2,1,y=0:2,3,0]>
Query was executed successfully

SCIDB QUERY : <create array dTs_nf <a:int64 null default 2 compression 'null filter'> [x=-2:3,2,1,y=0:2,3,0]>
Query was executed successfully

SCIDB QUERY : <create array edTs_rle <a:int64 null default 2 compression 'rle'> [x=-2:3,2,1,y=0:2,3,0]>
Query was executed successfully

SCIDB QUERY : <create array edTs_d <a:int64 null default 2 compression 'dictionary'> [x=-2:3,2,1,y=0:2,3,0]>
Query was executed successfully

SCIDB QUERY : <create array edTs_ns <a:int64 null default 2 compression 'null suppression'> [x=-2:3,2,1,y=0:2,3,0]>
Query was executed successfully

SCIDB QUERY : <create array edTs_be <a:int64 null default 2 compression 'bitmap encoding'> [x=-2:3,2,1,y=0:2,3,0]>
Query was executed successfully

SCIDB QUERY : <create array edTs_z <a:int64 null default 2 compression 'zlib'> [x=-2:3,2,1,y=0:2,3,0]>
Query was executed successfully

SCIDB QUERY : <create array edTs_bz <a:int64 null default 2 compression 'bzlib'> [x=-2:3,2,1,y=0:2,3,0]>
Query was executed successfully

SCIDB QUERY : <create array edTs_nf <a:int64 null default 2 compression 'null filter'> [x=-2:3,2,1,y=0:2,3,0]>
Query was executed successfully

SCIDB QUERY : <load Ts_rle from '${TEST_DATA_DIR}/null_19.txt'>
{x,y} a
{-1,2} ?2
{0,0} ?1

SCIDB QUERY : <load Ts_d from '${TEST_DATA_DIR}/null_19.txt'>
{x,y} a
{-1,2} ?2
{0,0} ?1

SCIDB QUERY : <load Ts_ns from '${TEST_DATA_DIR}/null_19.txt'>
{x,y} a
{-1,2} ?2
{0,0} ?1

SCIDB QUERY : <load Ts_be from '${TEST_DATA_DIR}/null_19.txt'>
{x,y} a
{-1,2} ?2
{0,0} ?1

SCIDB QUERY : <load Ts_z from '${TEST_DATA_DIR}/null_19.txt'>
{x,y} a
{-1,2} ?2
{0,0} ?1

SCIDB QUERY : <load Ts_bz from '${TEST_DATA_DIR}/null_19.txt'>
{x,y} a
{-1,2} ?2
{0,0} ?1

SCIDB QUERY : <load Ts_nf from '${TEST_DATA_DIR}/null_19.txt'>
{x,y} a
{-1,2} ?2
{0,0} ?1

SCIDB QUERY : <load dTs_rle from '${TEST_DATA_DIR}/null_19.txt'>
{x,y} a
{-1,2} ?2
{0,0} ?1

SCIDB QUERY : <load dTs_d from '${TEST_DATA_DIR}/null_19.txt'>
{x,y} a
{-1,2} ?2
{0,0} ?1

SCIDB QUERY : <load dTs_ns from '${TEST_DATA_DIR}/null_19.txt'>
{x,y} a
{-1,2} ?2
{0,0} ?1

SCIDB QUERY : <load dTs_be from '${TEST_DATA_DIR}/null_19.txt'>
{x,y} a
{-1,2} ?2
{0,0} ?1

SCIDB QUERY : <load dTs_z from '${TEST_DATA_DIR}/null_19.txt'>
{x,y} a
{-1,2} ?2
{0,0} ?1

SCIDB QUERY : <load dTs_bz from '${TEST_DATA_DIR}/null_19.txt'>
{x,y} a
{-1,2} ?2
{0,0} ?1

SCIDB QUERY : <load dTs_nf from '${TEST_DATA_DIR}/null_19.txt'>
{x,y} a
{-1,2} ?2
{0,0} ?1

SCIDB QUERY : <load eTs_rle from '${TEST_DATA_DIR}/null_19.txt'>
{x,y} a
{-1,2} ?2
{0,0} ?1

SCIDB QUERY : <load eTs_d from '${TEST_DATA_DIR}/null_19.txt'>
{x,y} a
{-1,2} ?2
{0,0} ?1

SCIDB QUERY : <load eTs_ns from '${TEST_DATA_DIR}/null_19.txt'>
{x,y} a
{-1,2} ?2
{0,0} ?1

SCIDB QUERY : <load eTs_be from '${TEST_DATA_DIR}/null_19.txt'>
{x,y} a
{-1,2} ?2
{0,0} ?1

SCIDB QUERY : <load eTs_z from '${TEST_DATA_DIR}/null_19.txt'>
{x,y} a
{-1,2} ?2
{0,0} ?1

SCIDB QUERY : <load eTs_bz from '${TEST_DATA_DIR}/null_19.txt'>
{x,y} a
{-1,2} ?2
{0,0} ?1

SCIDB QUERY : <load eTs_nf from '${TEST_DATA_DIR}/null_19.txt'>
{x,y} a
{-1,2} ?2
{0,0} ?1

SCIDB QUERY : <load edTs_rle from '${TEST_DATA_DIR}/null_19.txt'>
{x,y} a
{-1,2} ?2
{0,0} ?1

SCIDB QUERY : <load edTs_d from '${TEST_DATA_DIR}/null_19.txt'>
{x,y} a
{-1,2} ?2
{0,0} ?1

SCIDB QUERY : <load edTs_ns from '${TEST_DATA_DIR}/null_19.txt'>
{x,y} a
{-1,2} ?2
{0,0} ?1

SCIDB QUERY : <load edTs_be from '${TEST_DATA_DIR}/null_19.txt'>
{x,y} a
{-1,2} ?2
{0,0} ?1

SCIDB QUERY : <load edTs_z from '${TEST_DATA_DIR}/null_19.txt'>
{x,y} a
{-1,2} ?2
{0,0} ?1

SCIDB QUERY : <load edTs_bz from '${TEST_DATA_DIR}/null_19.txt'>
{x,y} a
{-1,2} ?2
{0,0} ?1

SCIDB QUERY : <load edTs_nf from '${TEST_DATA_DIR}/null_19.txt'>
{x,y} a
{-1,2} ?2
{0,0} ?1

SCIDB QUERY : <load Ts_rle from '${TEST_DATA_DIR}/null_20.txt'>
{x,y} a
{0,2} ?3
{2,0} ?1
{3,2} ?2

SCIDB QUERY : <load Ts_d from '${TEST_DATA_DIR}/null_20.txt'>
{x,y} a
{0,2} ?3
{2,0} ?1
{3,2} ?2

SCIDB QUERY : <load Ts_ns from '${TEST_DATA_DIR}/null_20.txt'>
{x,y} a
{0,2} ?3
{2,0} ?1
{3,2} ?2

SCIDB QUERY : <load Ts_be from '${TEST_DATA_DIR}/null_20.txt'>
{x,y} a
{0,2} ?3
{2,0} ?1
{3,2} ?2

SCIDB QUERY : <load Ts_z from '${TEST_DATA_DIR}/null_20.txt'>
{x,y} a
{0,2} ?3
{2,0} ?1
{3,2} ?2

SCIDB QUERY : <load Ts_bz from '${TEST_DATA_DIR}/null_20.txt'>
{x,y} a
{0,2} ?3
{2,0} ?1
{3,2} ?2

SCIDB QUERY : <load Ts_nf from '${TEST_DATA_DIR}/null_20.txt'>
{x,y} a
{0,2} ?3
{2,0} ?1
{3,2} ?2

SCIDB QUERY : <load dTs_rle from '${TEST_DATA_DIR}/null_20.txt'>
{x,y} a
{0,2} ?3
{2,0} ?1
{3,2} ?2

SCIDB QUERY : <load dTs_d from '${TEST_DATA_DIR}/null_20.txt'>
{x,y} a
{0,2} ?3
{2,0} ?1
{3,2} ?2

SCIDB QUERY : <load dTs_ns from '${TEST_DATA_DIR}/null_20.txt'>
{x,y} a
{0,2} ?3
{2,0} ?1
{3,2} ?2

SCIDB QUERY : <load dTs_be from '${TEST_DATA_DIR}/null_20.txt'>
{x,y} a
{0,2} ?3
{2,0} ?1
{3,2} ?2

SCIDB QUERY : <load dTs_z from '${TEST_DATA_DIR}/null_20.txt'>
{x,y} a
{0,2} ?3
{2,0} ?1
{3,2} ?2

SCIDB QUERY : <load dTs_bz from '${TEST_DATA_DIR}/null_20.txt'>
{x,y} a
{0,2} ?3
{2,0} ?1
{3,2} ?2

SCIDB QUERY : <load dTs_nf from '${TEST_DATA_DIR}/null_20.txt'>
{x,y} a
{0,2} ?3
{2,0} ?1
{3,2} ?2

SCIDB QUERY : <load eTs_rle from '${TEST_DATA_DIR}/null_20.txt'>
{x,y} a
{0,2} ?3
{2,0} ?1
{3,2} ?2

SCIDB QUERY : <load eTs_d from '${TEST_DATA_DIR}/null_20.txt'>
{x,y} a
{0,2} ?3
{2,0} ?1
{3,2} ?2

SCIDB QUERY : <load eTs_ns from '${TEST_DATA_DIR}/null_20.txt'>
{x,y} a
{0,2} ?3
{2,0} ?1
{3,2} ?2

SCIDB QUERY : <load eTs_be from '${TEST_DATA_DIR}/null_20.txt'>
{x,y} a
{0,2} ?3
{2,0} ?1
{3,2} ?2

SCIDB QUERY : <load eTs_z from '${TEST_DATA_DIR}/null_20.txt'>
{x,y} a
{0,2} ?3
{2,0} ?1
{3,2} ?2

SCIDB QUERY : <load eTs_bz from '${TEST_DATA_DIR}/null_20.txt'>
{x,y} a
{0,2} ?3
{2,0} ?1
{3,2} ?2

SCIDB QUERY : <load eTs_nf from '${TEST_DATA_DIR}/null_20.txt'>
{x,y} a
{0,2} ?3
{2,0} ?1
{3,2} ?2

SCIDB QUERY : <load edTs_rle from '${TEST_DATA_DIR}/null_20.txt'>
{x,y} a
{0,2} ?3
{2,0} ?1
{3,2} ?2

SCIDB QUERY : <load edTs_d from '${TEST_DATA_DIR}/null_20.txt'>
{x,y} a
{0,2} ?3
{2,0} ?1
{3,2} ?2

SCIDB QUERY : <load edTs_ns from '${TEST_DATA_DIR}/null_20.txt'>
{x,y} a
{0,2} ?3
{2,0} ?1
{3,2} ?2

SCIDB QUERY : <load edTs_be from '${TEST_DATA_DIR}/null_20.txt'>
{x,y} a
{0,2} ?3
{2,0} ?1
{3,2} ?2

SCIDB QUERY : <load edTs_z from '${TEST_DATA_DIR}/null_20.txt'>
{x,y} a
{0,2} ?3
{2,0} ?1
{3,2} ?2

SCIDB QUERY : <load edTs_bz from '${TEST_DATA_DIR}/null_20.txt'>
{x,y} a
{0,2} ?3
{2,0} ?1
{3,2} ?2

SCIDB QUERY : <load edTs_nf from '${TEST_DATA_DIR}/null_20.txt'>
{x,y} a
{0,2} ?3
{2,0} ?1
{3,2} ?2

SCIDB QUERY : <remove(Ts_rle)>
Query was executed successfully

SCIDB QUERY : <remove(Ts_d)>
Query was executed successfully

SCIDB QUERY : <remove(Ts_ns)>
Query was executed successfully

SCIDB QUERY : <remove(Ts_be)>
Query was executed successfully

SCIDB QUERY : <remove(Ts_z)>
Query was executed successfully

SCIDB QUERY : <remove(Ts_bz)>
Query was executed successfully

SCIDB QUERY : <remove(Ts_nf)>
Query was executed successfully

SCIDB QUERY : <remove(eTs_rle)>
Query was executed successfully

SCIDB QUERY : <remove(eTs_d)>
Query was executed successfully

SCIDB QUERY : <remove(eTs_ns)>
Query was executed successfully

SCIDB QUERY : <remove(eTs_be)>
Query was executed successfully

SCIDB QUERY : <remove(eTs_z)>
Query was executed successfully

SCIDB QUERY : <remove(eTs_bz)>
Query was executed successfully

SCIDB QUERY : <remove(eTs_nf)>
Query was executed successfully

SCIDB QUERY : <remove(dTs_rle)>
Query was executed successfully

SCIDB QUERY : <remove(dTs_d)>
Query was executed successfully

SCIDB QUERY : <remove(dTs_ns)>
Query was executed successfully

SCIDB QUERY : <remove(dTs_be)>
Query was executed successfully

SCIDB QUERY : <remove(dTs_z)>
Query was executed successfully

SCIDB QUERY : <remove(dTs_bz)>
Query was executed successfully

SCIDB QUERY : <remove(dTs_nf)>
Query was executed successfully

SCIDB QUERY : <remove(edTs_rle)>
Query was executed successfully

SCIDB QUERY : <remove(edTs_d)>
Query was executed successfully

SCIDB QUERY : <remove(edTs_ns)>
Query was executed successfully

SCIDB QUERY : <remove(edTs_be)>
Query was executed successfully

SCIDB QUERY : <remove(edTs_z)>
Query was executed successfully

SCIDB QUERY : <remove(edTs_bz)>
Query was executed successfully

SCIDB QUERY : <remove(edTs_nf)>
Query was executed successfully

