SCIDB QUERY : <create array SCHEMA_8GB_ROWc1024 <a: double >   [r=0:0,1024,0, c=0:1024*1024*1024-1,1024,0]>
Query was executed successfully

SCIDB QUERY : <create array SCHEMA_8GB_COLc1024 <a: double >   [r=0:1024*1024*1024-1,1024,0, c=0:0,1024,0]>
Query was executed successfully

SCIDB QUERY : <create array SCHEMA_ONEc1024 <a: double >       [r=0:0,1024,0, c=0:0,1024,0]>
Query was executed successfully

SCIDB QUERY : <load_library('dense_linear_algebra')>
Query was executed successfully

SCIDB QUERY : <gemm(build(SCHEMA_8GB_ROWc1024, 0), build(SCHEMA_8GB_COLc1024, 0), build(SCHEMA_ONEc1024, 0))>
[[An error expected at this place for the query "gemm(build(SCHEMA_8GB_ROWc1024, 0), build(SCHEMA_8GB_COLc1024, 0), build(SCHEMA_ONEc1024, 0))". And it failed with error code = scidb::SCIDB_SE_NO_MEMORY::SCIDB_LE_MEMORY_ALLOCATION_ERROR. Expected error code = scidb::SCIDB_SE_NO_MEMORY::SCIDB_LE_MEMORY_ALLOCATION_ERROR.], ignoring data output by this query.]

SCIDB QUERY : <remove(SCHEMA_8GB_ROWc1024)>
Query was executed successfully

SCIDB QUERY : <remove(SCHEMA_8GB_COLc1024)>
Query was executed successfully

SCIDB QUERY : <remove(SCHEMA_ONEc1024)>
Query was executed successfully

