SCIDB QUERY : <create temp array tempB <value:string null> [row=1:3,3,0, col=1:3,3,0]>
Query was executed successfully

SCIDB QUERY : <create temp array tempA <value:string null> [row=1:3,3,0, col=1:3,3,0]>
Query was executed successfully

SCIDB QUERY : <create temp array tempBFlat <row:int64, col:int64, value:string null> [csvRow=0:5,6,0]>
Query was executed successfully

SCIDB QUERY : <store(redimension(tempBFlat,tempB),tempB)>
{row,col} value

SCIDB QUERY : <load tempBFlat from '/tmp/bInsert.csv' as 'csv'>
{csvRow} row,col,value
{0} 1,2,null
{1} 1,3,'b3'
{2} 2,2,null
{3} 2,3,'b6'
{4} 3,2,null
{5} 3,3,'b9'

SCIDB QUERY : <insert into tempB select * from tempA>
{row,col} value

SCIDB QUERY : <remove(tempA)>
Query was executed successfully

SCIDB QUERY : <remove(tempB)>
Query was executed successfully

SCIDB QUERY : <remove(tempBFlat)>
Query was executed successfully

