SCIDB QUERY : <CREATE array Raw_CSVLoad_1 < symbl : string, time : string, price : double, qry : int64 > [ Offset=0:*,10,0 ]>
Query was executed successfully

SCIDB QUERY : <CREATE array Raw_CSVLoad_2 < tax_id : int32, gene_id : int64, go_id : string, evidence : string, qualifier : int32 NULL, term : string, pubmed_id : int32 NULL, category : string > [ Offset=0:*,10,0 ]>
Query was executed successfully

SCIDB QUERY : <CREATE array Raw_CSVLoad_3 < Probe_ID : string, Platform_ID : string, Entrez_Gene_ID : int32, Symbol   : string, Synonyms : string, Description : string, TaxOn_ID : int32, Count_Gene  : int32, Count_RefSeq  : int32, Unique_to_Gene : bool, Unique_to_Genome : bool, Unique_to_RefSeq : bool > [ Line=0:*,10,0]>
Query was executed successfully

SCIDB QUERY : <CREATE ARRAY Raw_CSVLoad_4 < Probe_ID : string, Platform_ID : string, Entrez_Gene_ID : int32, Symbol   : string, Synonyms : string, Description : string, TaxOn_ID : int32, Count_Gene  : int32, Count_RefSeq  : int32, Unique_to_Gene : bool, Unique_to_Genome : bool, Unique_to_RefSeq : bool > [ Line ]>
Query was executed successfully

SCIDB QUERY : <CREATE ARRAY Raw_CSVLoad_5 < attr_1 : int64 > [ I=0:*,4,0 ]>
Query was executed successfully

SCIDB QUERY : <CREATE ARRAY Raw_CSVLoad_6 < attr_1 : int64 > [ I=0:*,4,0 ]>
Query was executed successfully

SCIDB QUERY : <CREATE ARRAY Raw_CSVLoad_7 < attr_1 : string > [ I=0:*,4,0 ]>
Query was executed successfully

SCIDB QUERY : <CREATE ARRAY Raw_CSVLoad_8 < attr_2 : string > [ I=0:*,4,0 ]>
Query was executed successfully

SCIDB QUERY : < sed 1d ${TEST_DATA_DIR}/csv2scidb_1.csv > /tmp/csv2scidb_test_1.load >

SCIDB QUERY : <load ( Raw_CSVLoad_1, '/tmp/csv2scidb_test_1.load', -2, 'csv' )>
{Offset} symbl,time,price,qry
{0} 'Foo','T_001',10,100
{1} 'Foo','T_001',10.5,200
{2} 'Foo','T_003',11.5,150
{3} 'Foo','T_004',12.5,200
{4} 'Foo','T_005',12,150
{5} 'Foo','T_007',12.5,100
{6} 'Foo','T_008',13,200
{7} 'Foo','T_009',12.5,100
{8} 'Foo','T_009',13,150
{9} 'Foo','T_011',13,150
{10} 'Foo','T_012',13.5,100
{11} 'Bar','T_001',110,100
{12} 'Bar','T_002',110.5,200
{13} 'Bar','T_003',111.5,150
{14} 'Bar','T_004',112.5,200
{15} 'Bar','T_005',112,150
{16} 'Bar','T_006',111,75
{17} 'Bar','T_006',111,100
{18} 'Bar','T_007',112.5,100
{19} 'Bar','T_008',113,200
{20} 'Bar','T_009',112.5,100
{21} 'Bar','T_009',113,150
{22} 'Bar','T_010',112.5,50
{23} 'Bar','T_012',113.5,100
{24} 'Mug','T_002',60.5,200
{25} 'Mug','T_003',61.5,100
{26} 'Mug','T_004',62.5,200
{27} 'Mug','T_005',62,150
{28} 'Mug','T_006',61,175
{29} 'Mug','T_007',61,100
{30} 'Mug','T_007',62.5,100
{31} 'Mug','T_008',63,150
{32} 'Mug','T_009',62.5,50
{33} 'Mug','T_009',63,50
{34} 'Mug','T_010',63.5,50
{35} 'Mug','T_012',63.5,50
{36} 'Wump','T_001',9,100
{37} 'Wump','T_002',9.5,250
{38} 'Wump','T_003',8.5,100
{39} 'Wump','T_004',7.5,200
{40} 'Wump','T_005',8,250
{41} 'Wump','T_006',9,75
{42} 'Wump','T_007',9,100
{43} 'Wump','T_007',7.5,50
{44} 'Wump','T_008',7,150
{45} 'Wump','T_009',7.5,50
{46} 'Wump','T_009',7,250
{47} 'Wump','T_010',6.5,150
{48} 'Wump','T_010',5.5,150
{49} 'Wump','T_012',6,150

SCIDB QUERY : <load ( Raw_CSVLoad_2, '/tmp/csv2scidb_test_2.load', -2, 'tsv' )>
{Offset} tax_id,gene_id,go_id,evidence,qualifier,term,pubmed_id,category
{0} 9606,54879,'GO:0005488','IEA',0,'binding',0,'Function'
{1} 9606,268,'GO:0007568','IEA',0,'aging',0,'Process'
{2} 9606,1,'GO:0003674','ND',0,'molecular_function',0,'Function'
{3} 9606,1,'GO:0005576','IDA',0,'extracellular region',3458201,'Component'
{4} 9606,1,'GO:0008150','ND',0,'biological_process',0,'Process'
{5} 9606,2,'GO:0001869','IDA',0,'negative regulation of complement activation, lectin pathway',12538697,'Process'
{6} 9606,2,'GO:0002576','TAS',0,'platelet degranulation',0,'Process'
{7} 9606,2,'GO:0004867','IDA',0,'serine-type endopeptidase inhibitor activity',12538697,'Function'
{8} 9606,2,'GO:0005515','IPI',0,'protein binding',6698368,'Function'
{9} 9606,2,'GO:0005576','NAS',0,'extracellular region',14718574,'Component'
{10} 9606,2,'GO:0005576','TAS',0,'extracellular region',0,'Component'
{11} 9606,2,'GO:0005615','IEA',0,'extracellular space',0,'Component'
{12} 9606,2,'GO:0005829','TAS',0,'cytosol',0,'Component'
{13} 9606,2,'GO:0007264','TAS',0,'small GTPase mediated signal transduction',0,'Process'
{14} 9606,2,'GO:0007596','TAS',0,'blood coagulation',0,'Process'
{15} 9606,2,'GO:0007597','TAS',0,'blood coagulation, intrinsic pathway',0,'Process'
{16} 9606,2,'GO:0019838','IDA',0,'growth factor binding',9398211,'Function'
{17} 9606,2,'GO:0019899','IPI',0,'enzyme binding',11435418,'Function'
{18} 9606,2,'GO:0019959','IPI',0,'interleukin-8 binding',10880251,'Function'

SCIDB QUERY : <load ( Raw_CSVLoad_3, '/tmp/csv2scidb_test_3.load', -2, 'csv' )>
{Line} Probe_ID,Platform_ID,Entrez_Gene_ID,Symbol,Synonyms,Description,TaxOn_ID,Count_Gene,Count_RefSeq,Unique_to_Gene,Unique_to_Genome,Unique_to_RefSeq
{0} '213828_x_at','HG_U133_Plus_2',100133109,'','','',9606,10,15,false,false,false
{1} '213826_s_at','HG_U133_Plus_2',100133109,'','','',9606,9,14,false,false,false
{2} '210040_at','HG_U133_Plus_2',100288047,'','','',9606,3,5,false,false,false
{3} '209262_s_at','HG_U133_Plus_2',100291887,'','','',9606,3,4,false,true,false
{4} '213354_s_at','HG_U133_Plus_2',100291887,'','','',9606,3,4,false,false,false
{5} '203735_x_at','HG_U133_Plus_2',100290488,'','','',9606,28,36,false,false,false
{6} '229179_at','HG_U133_Plus_2',100288901,'','','',9606,2,4,false,false,false
{7} '230554_at','HG_U133_Plus_2',100291873,'','','',9606,2,3,false,false,false
{8} '214069_at','HG_U133_Plus_2',100291873,'','','',9606,3,5,false,false,false

SCIDB QUERY : <load ( Raw_CSVLoad_4, '/tmp/csv2scidb_test_4.load', -2, 'csv' )>
[Query was executed successfully, ignoring data output by this query.]

SCIDB QUERY : <subarray (Raw_CSVLoad_4, 0,100)>
{Line} Probe_ID,Platform_ID,Entrez_Gene_ID,Symbol,Synonyms,Description,TaxOn_ID,Count_Gene,Count_RefSeq,Unique_to_Gene,Unique_to_Genome,Unique_to_RefSeq
{0} '213828_x_at','HG_U133_Plus_2',100133109,'','','',9606,10,15,false,false,false
{1} '213826_s_at','HG_U133_Plus_2',100133109,'','','',9606,9,14,false,false,false
{2} '210040_at','HG_U133_Plus_2',100288047,'','','',9606,3,5,false,false,false
{3} '209262_s_at','HG_U133_Plus_2',100291887,'','','',9606,3,4,false,true,false
{4} '213354_s_at','HG_U133_Plus_2',100291887,'','','',9606,3,4,false,false,false
{5} '203735_x_at','HG_U133_Plus_2',100290488,'','','',9606,28,36,false,false,false
{6} '229179_at','HG_U133_Plus_2',100288901,'','','',9606,2,4,false,false,false
{7} '230554_at','HG_U133_Plus_2',100291873,'','','',9606,2,3,false,false,false
{8} '214069_at','HG_U133_Plus_2',100291873,'','','',9606,3,5,false,false,false

SCIDB QUERY : <show ( Raw_CSVLoad_4 )>
{i} schema
{0} 'Raw_CSVLoad_4<Probe_ID:string,Platform_ID:string,Entrez_Gene_ID:int32,Symbol:string,Synonyms:string,Description:string,TaxOn_ID:int32,Count_Gene:int32,Count_RefSeq:int32,Unique_to_Gene:bool,Unique_to_Genome:bool,Unique_to_RefSeq:bool> [Line=0:*,1000000,0]'

Empty lines in the input file, see ticket 2134
SCIDB QUERY : <load ( Raw_CSVLoad_5, '/tmp/csv2scidb_test_5.load', -2, 'csv' )>
{I} attr_1
{0} 1
{1} 2
{2} 3
{3} 4
{4} 5

SCIDB QUERY : <load ( Raw_CSVLoad_6, '/tmp/csv2scidb_test_6.load', -2, 'csv' )>
{I} attr_1
{0} 1
{1} 2
{2} 3
{3} 4
{4} 5

SCIDB QUERY : <load ( Raw_CSVLoad_7, '/tmp/csv2scidb_test_7.load', -2, 'csv' )>
{I} attr_1
{0} 'foo'
{1} 'bar'
{2} 'mug'
{3} 'wump'
{4} 'foobar'

SCIDB QUERY : <load ( Raw_CSVLoad_8, '/tmp/csv2scidb_test_8.load', -2, 'csv' )>
{I} attr_2
{0} 'foo'
{1} 'bar'
{2} 'mug'
{3} 'wump'
{4} 'foobar'

SCIDB QUERY : <remove ( Raw_CSVLoad_1 )>
Query was executed successfully

SCIDB QUERY : <remove ( Raw_CSVLoad_2 )>
Query was executed successfully

SCIDB QUERY : <remove ( Raw_CSVLoad_3 )>
Query was executed successfully

SCIDB QUERY : <remove ( Raw_CSVLoad_4 )>
Query was executed successfully

SCIDB QUERY : <remove ( Raw_CSVLoad_5 )>
Query was executed successfully

SCIDB QUERY : <remove ( Raw_CSVLoad_6 )>
Query was executed successfully

SCIDB QUERY : <remove ( Raw_CSVLoad_7 )>
Query was executed successfully

SCIDB QUERY : <remove ( Raw_CSVLoad_8 )>
Query was executed successfully

SCIDB QUERY : <rm -rf /tmp/csv2scidb_test_1.load >

SCIDB QUERY : <rm -rf /tmp/csv2scidb_test_2.load >

SCIDB QUERY : <rm -rf /tmp/csv2scidb_test_3.load >

SCIDB QUERY : <rm -rf /tmp/csv2scidb_test_4.load >

SCIDB QUERY : <rm -rf /tmp/csv2scidb_test_5.load >

SCIDB QUERY : <rm -rf /tmp/csv2scidb_test_6.load >

SCIDB QUERY : <rm -rf /tmp/csv2scidb_test_7.load >

SCIDB QUERY : <rm -rf /tmp/csv2scidb_test_8.load >

