SCIDB QUERY : <create array A <val:int64> [x=0:10000,5000,0,y=0:10000,5000,0]>
Query was executed successfully

SCIDB QUERY : <load(A, '${TEST_DATA_DIR}/bsparse.txt')>
{x,y} val
{0,0} 10
{5000,5000} 55010

SCIDB QUERY : <create array B <val:int64> [x=0:*,5000,0,y=0:*,5000,0]>
Query was executed successfully

SCIDB QUERY : <load(B, '${TEST_DATA_DIR}/bsparse.txt')>
{x,y} val
{0,0} 10
{5000,5000} 55010

SCIDB QUERY : <create array C <num:double> [x=1:100000000,100000,0,y=1:500000,100000,0,z=1:*,100000,0]>
Query was executed successfully

SCIDB QUERY : <load(C, '${TEST_DATA_DIR}/bsp1.txt')>
{x,y,z} num
{1,1,1} 15.2
{100000,100000,1000000} inf
{100000000,500000,10000000} nan

SCIDB QUERY : <select sum(val/2),ApproxDC(val),avg(val) from A regrid as (partition by x 2000 , y 2000)>
x,y,sum,ApproxDC_1,avg_2
0,0,5,1,10
2,2,27505,1,55010

SCIDB QUERY : <select sum(val/2),ApproxDC(val),avg(val) from A regrid as (partition by y 2000 , x 2000)>
x,y,sum,ApproxDC_1,avg_2
0,0,5,1,10
2,2,27505,1,55010

SCIDB QUERY : <select sum(val/2),ApproxDC(val),avg(val) from A regrid as (partition by y 10001 , x 2000)>
x,y,sum,ApproxDC_1,avg_2
0,0,5,1,10
2,0,27505,1,55010

SCIDB QUERY : <select sum(val/2),ApproxDC(val),avg(val) from A regrid as (partition by y 10001 , x 10001)>
x,y,sum,ApproxDC_1,avg_2
0,0,27510,2,27510

SCIDB QUERY : <select sum(val/2),ApproxDC(val),avg(val) from A fixed window  as (partition by y 500 preceding and 500 following , x 1000 preceding and 500 following)>
x,y,sum,ApproxDC_1,avg_2
0,0,5,1,10
5000,5000,27505,1,55010

SCIDB QUERY : <select sum(val/2),ApproxDC(val),avg(val) from A fixed window  as (partition by x 500 preceding and 500 following , y 1000 preceding and 500 following)>
x,y,sum,ApproxDC_1,avg_2
0,0,5,1,10
5000,5000,27505,1,55010

SCIDB QUERY : <select count(val+100),sum(val/2),ApproxDC(val),avg(val) from A fixed window  as (partition by x 1000000 preceding and 1000000 following , y 1000000 preceding and 100000 following)>
x,y,count,sum_1,ApproxDC_2,avg_3
0,0,2,27510,2,27510
5000,5000,2,27510,2,27510

SCIDB QUERY : <select count(val+100),sum(val/2),ApproxDC(val),avg(val) from A fixed window  as (partition by x 1000000 preceding and 000 following , y 1000000 preceding and 000 following)>
x,y,count,sum_1,ApproxDC_2,avg_3
0,0,1,5,1,10
5000,5000,2,27510,2,27510

SCIDB QUERY : <select count(val+100),sum(val/2),ApproxDC(val),avg(val) from A fixed window  as (partition by x 1000000 preceding and 0000001 following , y 01567 preceding and 000 following)>
x,y,count,sum_1,ApproxDC_2,avg_3
0,0,1,5,1,10
5000,5000,1,27505,1,55010

SCIDB QUERY : <select count(val+100),sum(val/2),ApproxDC(val),avg(val) from A fixed window  as (partition by x 0 preceding and  10001 following , y 00010001 preceding and 00000000000111111 following)>
x,y,count,sum_1,ApproxDC_2,avg_3
0,0,2,27510,2,27510
5000,5000,1,27505,1,55010

SCIDB QUERY : <select count(val+100),sum(val/2),ApproxDC(val),avg(val) from A fixed window  as (partition by x 100000 preceding and  100000 following , y 100010 preceding and 100000 following)>
x,y,count,sum_1,ApproxDC_2,avg_3
0,0,2,27510,2,27510
5000,5000,2,27510,2,27510

SCIDB QUERY : <select ApproxDC(2*val) from A fixed window  as (partition by x 100000 preceding and  100000 following , y 100010 preceding and 100000 following)>
x,y,ApproxDC
0,0,2
5000,5000,2

SCIDB QUERY : <select ApproxDC(val)+100 from A fixed window  as (partition by x 100000 preceding and  100000 following , y 100010 preceding and 100000 following)>
x,y,expr
0,0,102
5000,5000,102

SCIDB QUERY : <select sum(val) from A fixed window  as (partition by x 0 preceding and  5000 following , y 5000 preceding and 0 following, y 5000 preceding and 0 following)>
[An error expected at this place for the query "select sum(val) from A fixed window  as (partition by x 0 preceding and  5000 following , y 5000 preceding and 0 following, y 5000 preceding and 0 following)". And it failed with error code = scidb::SCIDB_SE_QPROC::SCIDB_LE_MULTIPLE_DIMENSION_SPECIFICATION. Expected error code = scidb::SCIDB_SE_QPROC::SCIDB_LE_MULTIPLE_DIMENSION_SPECIFICATION.]

SCIDB QUERY : <select sum(val) from A fixed window  as (partition by x 0 preceding and  5000 following , y 5000 preceding and 0 following, z 5000 preceding and 0 following)>
[An error expected at this place for the query "select sum(val) from A fixed window  as (partition by x 0 preceding and  5000 following , y 5000 preceding and 0 following, z 5000 preceding and 0 following)". And it failed with error code = scidb::SCIDB_SE_SYNTAX::SCIDB_LE_DIMENSION_NOT_EXIST. Expected error code = scidb::SCIDB_SE_SYNTAX::SCIDB_LE_DIMENSION_NOT_EXIST.]

SCIDB QUERY : <select sum(val) from A fixed window  as (partition by x 0 preceding and  5000 following , z 5000 preceding and 0 following)>
[An error expected at this place for the query "select sum(val) from A fixed window  as (partition by x 0 preceding and  5000 following , z 5000 preceding and 0 following)". And it failed with error code = scidb::SCIDB_SE_SYNTAX::SCIDB_LE_DIMENSION_NOT_EXIST. Expected error code = scidb::SCIDB_SE_SYNTAX::SCIDB_LE_DIMENSION_NOT_EXIST.]

SCIDB QUERY : <select sum(val/2),avg(val) from B regrid as (partition by x * , y *)>
[An error expected at this place for the query "select sum(val/2),avg(val) from B regrid as (partition by x * , y *)". And it failed with error code = scidb::SCIDB_SE_PARSER::SCIDB_LE_QUERY_PARSING_ERROR. Expected error code = scidb::SCIDB_SE_PARSER::SCIDB_LE_QUERY_PARSING_ERROR.]

SCIDB QUERY : <select count(num1),sum(num1),avg(num/2) from apply(C,num1,21*x+y) regrid  as (partition by y 12345 , z 786, x (549+200))>
[An error expected at this place for the query "select count(num1),sum(num1),avg(num/2) from apply(C,num1,21*x+y) regrid  as (partition by y 12345 , z 786, x (549+200))". And it failed with error code = scidb::SCIDB_SE_PARSER::SCIDB_LE_QUERY_PARSING_ERROR. Expected error code = scidb::SCIDB_SE_PARSER::SCIDB_LE_QUERY_PARSING_ERROR.]

SCIDB QUERY : <select sum(val/2),ApproxDC(val),avg(val) from B regrid as (partition by x 2000 , y 2000)>
x,y,sum,ApproxDC_1,avg_2
0,0,5,1,10
2,2,27505,1,55010

SCIDB QUERY : <select ApproxDC(val)+100/2.5 from B  fixed window  as (partition by x 1 preceding and  1 following , y 1 preceding and 1 following)>
x,y,expr
0,0,41
5000,5000,41

SCIDB QUERY : <select ApproxDC(val)+100/2.5 from B  fixed window  as (partition by x 100000 preceding and  1 following , y 100010 preceding and 1 following)>
x,y,expr
0,0,41
5000,5000,42

SCIDB QUERY : <select sum(val3) from apply(apply(B,val2,val+10),val3,val2*20)  fixed window  as (partition by x 1 preceding and  1 following , y 1 preceding and 1 following)>
x,y,sum
0,0,400
5000,5000,1100400

SCIDB QUERY : <select sum(val3) from apply(apply(B,val2,val+10),val3,val2*20)  fixed window  as (partition by x 0 preceding and  10000 following , y 0 preceding and 5000 following)>
x,y,sum
0,0,1100800
5000,5000,1100400

SCIDB QUERY : <select sum(num) from C regrid  as (partition by x 1000 ,y 5000, z 10000)>
x,y,z,sum
1,1,1,15.2
100,20,100,inf
100000,100,1000,nan

SCIDB QUERY : <select sum(num) from C regrid  as (partition by z 1000 , y 5000, x 10000)>
x,y,z,sum
1,1,1,15.2
10,20,1000,inf
10000,100,10000,nan

SCIDB QUERY : <select count(num1),sum(num1),count(num)*10000 from apply(C,num1,21*x+y) regrid  as (partition by z 1000 , y 5000, x 10000)>
x,y,z,count,sum_1,expr
1,1,1,1,22,10000
10,20,1000,1,2200000,10000
10000,100,10000,1,2100500000,10000

SCIDB QUERY : <select count(num1),sum(num1),count(num)*10000 from apply(C,num1,21*x+y) regrid  as (partition by z 10 , x 500, y 10000)>
x,y,z,count,sum_1,expr
1,1,1,1,22,10000
200,10,100000,1,2200000,10000
200000,50,1000000,1,2100500000,10000

SCIDB QUERY : <select count(num1),sum(num1),count(num)*10000 from apply(C,num1,21*x+y) regrid  as (partition by y 10 , z 500, x 10000)>
x,y,z,count,sum_1,expr
1,1,1,1,22,10000
10,10000,2000,1,2200000,10000
10000,50000,20000,1,2100500000,10000

SCIDB QUERY : <select count(num1),sum(num1),avg(num/2) from apply(C,num1,21*x+y) regrid  as (partition by y 12345 , z 786, x 549)>
x,y,z,count,sum_1,avg_2
1,1,1,1,22,7.6
183,9,1273,1,2200000,inf
182150,41,12723,1,2100500000,nan

SCIDB QUERY : <remove(A)>
Query was executed successfully

SCIDB QUERY : <remove(B)>
Query was executed successfully

SCIDB QUERY : <remove(C)>
Query was executed successfully

