SCIDB QUERY : <create array catalogue <code:int64, type:string, price:double, review:string> [id=0:10,3,0]>
Query was executed successfully

SCIDB QUERY : <create array catalogue1 <code:int64 null, type:string null, price:double null, review:string null> [id=0:10,3,0]>
Query was executed successfully

SCIDB QUERY : <create array catalogue2 <code:int64, type:string, price:double, review:string> [id=0:10,3,0]>
Query was executed successfully

SCIDB QUERY : <create array catalogue3 <code:int64, type:string, price:double, review:string> [id=0:10,3,0]>
Query was executed successfully

SCIDB QUERY : <create array catalogue4 <code:int64, type:string null, price:double null, review:string> [id=0:10,3,0]>
Query was executed successfully

SCIDB QUERY : <create array catalogue5 <code:int64 null, type:string, price:double, review:string null> [id=0:10,3,0]>
Query was executed successfully

SCIDB QUERY : <create array catalogue6 <code:int64 null, type:string, price:double null, review:string> [id=0:10,3,0]>
Query was executed successfully

SCIDB QUERY : <create array catalogue7 <code:int64 null, type:string, price:double null, review:string> [id=0:10,3,0]>
Query was executed successfully

SCIDB QUERY : <load(catalogue,'${TEST_DATA_DIR}/iquery_3.txt')>
{id} code,type,price,review
{1} 21,'ice cream',50.5,'mango'
{2} 31,'soft drink',45.25,'coca cola'
{3} 0,'coffee',0,'CCD'
{4} 51,'chocolate',150.4,''
{5} 61,'',10,'nice'
{7} 81,'tea',0,'lemon'
{8} 91,'',90.1,''
{9} 0,'',100,'Lays'
{10} 11,'bread',35.2,'brown'

SCIDB QUERY : <load(catalogue1,'${TEST_DATA_DIR}/iquery_3.txt')>
{id} code,type,price,review
{1} 21,'ice cream',50.5,'mango'
{2} 31,'soft drink',45.25,'coca cola'
{3} null,'coffee',null,'CCD'
{4} 51,'chocolate',150.4,null
{5} 61,null,10,'nice'
{7} 81,'tea',null,'lemon'
{8} 91,null,90.1,null
{9} null,null,100,'Lays'
{10} 11,'bread',35.2,'brown'

SCIDB QUERY : <load(catalogue3,'${TEST_DATA_DIR}/iquery_3.txt')>
{id} code,type,price,review
{1} 21,'ice cream',50.5,'mango'
{2} 31,'soft drink',45.25,'coca cola'
{3} 0,'coffee',0,'CCD'
{4} 51,'chocolate',150.4,''
{5} 61,'',10,'nice'
{7} 81,'tea',0,'lemon'
{8} 91,'',90.1,''
{9} 0,'',100,'Lays'
{10} 11,'bread',35.2,'brown'

SCIDB QUERY : <load(catalogue4,'${TEST_DATA_DIR}/iquery_3.txt')>
{id} code,type,price,review
{1} 21,'ice cream',50.5,'mango'
{2} 31,'soft drink',45.25,'coca cola'
{3} 0,'coffee',null,'CCD'
{4} 51,'chocolate',150.4,''
{5} 61,null,10,'nice'
{7} 81,'tea',null,'lemon'
{8} 91,null,90.1,''
{9} 0,null,100,'Lays'
{10} 11,'bread',35.2,'brown'

SCIDB QUERY : <load(catalogue5,'${TEST_DATA_DIR}/iquery_3.txt')>
{id} code,type,price,review
{1} 21,'ice cream',50.5,'mango'
{2} 31,'soft drink',45.25,'coca cola'
{3} null,'coffee',0,'CCD'
{4} 51,'chocolate',150.4,null
{5} 61,'',10,'nice'
{7} 81,'tea',0,'lemon'
{8} 91,'',90.1,null
{9} null,'',100,'Lays'
{10} 11,'bread',35.2,'brown'

SCIDB QUERY : <store(filter(catalogue,true),catalogue2)>
{id} code,type,price,review
{1} 21,'ice cream',50.5,'mango'
{2} 31,'soft drink',45.25,'coca cola'
{3} 0,'coffee',0,'CCD'
{4} 51,'chocolate',150.4,''
{5} 61,'',10,'nice'
{7} 81,'tea',0,'lemon'
{8} 91,'',90.1,''
{9} 0,'',100,'Lays'
{10} 11,'bread',35.2,'brown'

SCIDB QUERY : <store(filter(catalogue,true),catalogue6)>
{id} code,type,price,review
{1} 21,'ice cream',50.5,'mango'
{2} 31,'soft drink',45.25,'coca cola'
{3} 0,'coffee',0,'CCD'
{4} 51,'chocolate',150.4,''
{5} 61,'',10,'nice'
{7} 81,'tea',0,'lemon'
{8} 91,'',90.1,''
{9} 0,'',100,'Lays'
{10} 11,'bread',35.2,'brown'

SCIDB QUERY : <store(filter(catalogue,true),catalogue7)>
{id} code,type,price,review
{1} 21,'ice cream',50.5,'mango'
{2} 31,'soft drink',45.25,'coca cola'
{3} 0,'coffee',0,'CCD'
{4} 51,'chocolate',150.4,''
{5} 61,'',10,'nice'
{7} 81,'tea',0,'lemon'
{8} 91,'',90.1,''
{9} 0,'',100,'Lays'
{10} 11,'bread',35.2,'brown'

SCIDB QUERY : < iaql  -o lcsv+ -aq 'scan ( catalogue )' >
id,code,type,price,review
1,21,'ice cream',50.5,'mango'
2,31,'soft drink',45.25,'coca cola'
3,0,'coffee',0,'CCD'
4,51,'chocolate',150.4,''
5,61,'',10,'nice'
7,81,'tea',0,'lemon'
8,91,'',90.1,''
9,0,'',100,'Lays'
10,11,'bread',35.2,'brown'

SCIDB QUERY : < iaql  -o lsparse -aq 'scan ( catalogue )' >
{1}[{1}(21,'ice cream',50.5,'mango'),{2}(31,'soft drink',45.25,'coca cola'),{3}{3}(0,'coffee',0,'CCD'),{4}(51,'chocolate',150.4,''),{5}(61,'',10,'nice')];{7}[{7}(81,'tea',0,'lemon'),{8}(91,'',90.1,''),{9}{9}(0,'',100,'Lays'),{10}(11,'bread',35.2,'brown')]

SCIDB QUERY : < iaql  -o lcsv+ -aq 'scan ( catalogue1 )' >
id,code,type,price,review
1,21,'ice cream',50.5,'mango'
2,31,'soft drink',45.25,'coca cola'
3,null,'coffee',null,'CCD'
4,51,'chocolate',150.4,null
5,61,null,10,'nice'
7,81,'tea',null,'lemon'
8,91,null,90.1,null
9,null,null,100,'Lays'
10,11,'bread',35.2,'brown'

SCIDB QUERY : < iaql  -o lsparse -aq 'scan ( catalogue1 )' >
{1}[{1}(21,'ice cream',50.5,'mango'),{2}(31,'soft drink',45.25,'coca cola'),{3}{3}(null,'coffee',null,'CCD'),{4}(51,'chocolate',150.4,null),{5}(61,null,10,'nice')];{7}[{7}(81,'tea',null,'lemon'),{8}(91,null,90.1,null),{9}{9}(null,null,100,'Lays'),{10}(11,'bread',35.2,'brown')]

SCIDB QUERY : < iaql  -o lcsv+ -aq 'scan ( catalogue2 )' >
id,code,type,price,review
1,21,'ice cream',50.5,'mango'
2,31,'soft drink',45.25,'coca cola'
3,0,'coffee',0,'CCD'
4,51,'chocolate',150.4,''
5,61,'',10,'nice'
7,81,'tea',0,'lemon'
8,91,'',90.1,''
9,0,'',100,'Lays'
10,11,'bread',35.2,'brown'

SCIDB QUERY : < iaql  -o lsparse -aq 'scan ( catalogue2 )' >
{1}[{1}(21,'ice cream',50.5,'mango'),{2}(31,'soft drink',45.25,'coca cola'),{3}{3}(0,'coffee',0,'CCD'),{4}(51,'chocolate',150.4,''),{5}(61,'',10,'nice')];{7}[{7}(81,'tea',0,'lemon'),{8}(91,'',90.1,''),{9}{9}(0,'',100,'Lays'),{10}(11,'bread',35.2,'brown')]

SCIDB QUERY : < iaql  -o lcsv+ -aq 'scan ( catalogue3 )' >
id,code,type,price,review
1,21,'ice cream',50.5,'mango'
2,31,'soft drink',45.25,'coca cola'
3,0,'coffee',0,'CCD'
4,51,'chocolate',150.4,''
5,61,'',10,'nice'
7,81,'tea',0,'lemon'
8,91,'',90.1,''
9,0,'',100,'Lays'
10,11,'bread',35.2,'brown'

SCIDB QUERY : < iaql  -o lsparse -aq 'scan ( catalogue3 )' >
{1}[{1}(21,'ice cream',50.5,'mango'),{2}(31,'soft drink',45.25,'coca cola'),{3}{3}(0,'coffee',0,'CCD'),{4}(51,'chocolate',150.4,''),{5}(61,'',10,'nice')];{7}[{7}(81,'tea',0,'lemon'),{8}(91,'',90.1,''),{9}{9}(0,'',100,'Lays'),{10}(11,'bread',35.2,'brown')]

SCIDB QUERY : < iaql  -o lcsv+ -aq 'scan ( catalogue4 )' >
id,code,type,price,review
1,21,'ice cream',50.5,'mango'
2,31,'soft drink',45.25,'coca cola'
3,0,'coffee',null,'CCD'
4,51,'chocolate',150.4,''
5,61,null,10,'nice'
7,81,'tea',null,'lemon'
8,91,null,90.1,''
9,0,null,100,'Lays'
10,11,'bread',35.2,'brown'

SCIDB QUERY : < iaql  -o lsparse -aq 'scan ( catalogue4 )' >
{1}[{1}(21,'ice cream',50.5,'mango'),{2}(31,'soft drink',45.25,'coca cola'),{3}{3}(0,'coffee',null,'CCD'),{4}(51,'chocolate',150.4,''),{5}(61,null,10,'nice')];{7}[{7}(81,'tea',null,'lemon'),{8}(91,null,90.1,''),{9}{9}(0,null,100,'Lays'),{10}(11,'bread',35.2,'brown')]

SCIDB QUERY : < iaql  -o lcsv+ -aq 'scan ( catalogue5 )' >
id,code,type,price,review
1,21,'ice cream',50.5,'mango'
2,31,'soft drink',45.25,'coca cola'
3,null,'coffee',0,'CCD'
4,51,'chocolate',150.4,null
5,61,'',10,'nice'
7,81,'tea',0,'lemon'
8,91,'',90.1,null
9,null,'',100,'Lays'
10,11,'bread',35.2,'brown'

SCIDB QUERY : < iaql  -o lsparse -aq 'scan ( catalogue5 )' >
{1}[{1}(21,'ice cream',50.5,'mango'),{2}(31,'soft drink',45.25,'coca cola'),{3}{3}(null,'coffee',0,'CCD'),{4}(51,'chocolate',150.4,null),{5}(61,'',10,'nice')];{7}[{7}(81,'tea',0,'lemon'),{8}(91,'',90.1,null),{9}{9}(null,'',100,'Lays'),{10}(11,'bread',35.2,'brown')]

SCIDB QUERY : < iaql  -o lcsv+ -aq 'scan ( catalogue6 )' >
id,code,type,price,review
1,21,'ice cream',50.5,'mango'
2,31,'soft drink',45.25,'coca cola'
3,0,'coffee',0,'CCD'
4,51,'chocolate',150.4,''
5,61,'',10,'nice'
7,81,'tea',0,'lemon'
8,91,'',90.1,''
9,0,'',100,'Lays'
10,11,'bread',35.2,'brown'

SCIDB QUERY : < iaql  -o lsparse -aq 'scan ( catalogue6 )' >
{1}[{1}(21,'ice cream',50.5,'mango'),{2}(31,'soft drink',45.25,'coca cola'),{3}{3}(0,'coffee',0,'CCD'),{4}(51,'chocolate',150.4,''),{5}(61,'',10,'nice')];{7}[{7}(81,'tea',0,'lemon'),{8}(91,'',90.1,''),{9}{9}(0,'',100,'Lays'),{10}(11,'bread',35.2,'brown')]

SCIDB QUERY : < iaql  -o lcsv+ -aq 'scan ( catalogue7 )' >
id,code,type,price,review
1,21,'ice cream',50.5,'mango'
2,31,'soft drink',45.25,'coca cola'
3,0,'coffee',0,'CCD'
4,51,'chocolate',150.4,''
5,61,'',10,'nice'
7,81,'tea',0,'lemon'
8,91,'',90.1,''
9,0,'',100,'Lays'
10,11,'bread',35.2,'brown'

SCIDB QUERY : < iaql  -o lsparse -aq 'scan ( catalogue7 )' >
{1}[{1}(21,'ice cream',50.5,'mango'),{2}(31,'soft drink',45.25,'coca cola'),{3}{3}(0,'coffee',0,'CCD'),{4}(51,'chocolate',150.4,''),{5}(61,'',10,'nice')];{7}[{7}(81,'tea',0,'lemon'),{8}(91,'',90.1,''),{9}{9}(0,'',100,'Lays'),{10}(11,'bread',35.2,'brown')]

SCIDB QUERY : <remove(catalogue)>
Query was executed successfully

SCIDB QUERY : <remove(catalogue1)>
Query was executed successfully

SCIDB QUERY : <remove(catalogue2)>
Query was executed successfully

SCIDB QUERY : <remove(catalogue3)>
Query was executed successfully

SCIDB QUERY : <remove(catalogue4)>
Query was executed successfully

SCIDB QUERY : <remove(catalogue5)>
Query was executed successfully

SCIDB QUERY : <remove(catalogue6)>
Query was executed successfully

SCIDB QUERY : <remove(catalogue7)>
Query was executed successfully

