SCIDB QUERY : <create array null_1 <a:int32 null,b:int32 null> [x=0:2,3,0, y=0:2,3,0]>
Query was executed successfully

SCIDB QUERY : <create array null_val <a:int32>[x=0:5,3,0]>
Query was executed successfully

SCIDB QUERY : <load(null_1,'${TEST_DATA_DIR}/null_4.txt')>
{x,y} a,b
{0,0} 0,0
{0,1} 0,null
{0,2} 0,2
{1,0} 1,0
{1,1} null,null
{1,2} 1,2
{2,0} 2,0
{2,1} 2,1
{2,2} null,2

SCIDB QUERY : <store(build(null_val,x+10),null_val)>
{x} a
{0} 10
{1} 11
{2} 12
{3} 13
{4} 14
{5} 15

SCIDB QUERY : <substitute(null_1,null_val)>
{x,y} a,b
{0,0} 0,0
{0,1} 0,10
{0,2} 0,2
{1,0} 1,0
{1,1} 10,10
{1,2} 1,2
{2,0} 2,0
{2,1} 2,1
{2,2} 10,2

SCIDB QUERY : <store(build(null_val,x+100),null_val)>
{x} a
{0} 100
{1} 101
{2} 102
{3} 103
{4} 104
{5} 105

SCIDB QUERY : <substitute(null_1,null_val)>
{x,y} a,b
{0,0} 0,0
{0,1} 0,100
{0,2} 0,2
{1,0} 1,0
{1,1} 100,100
{1,2} 1,2
{2,0} 2,0
{2,1} 2,1
{2,2} 100,2

SCIDB QUERY : <remove(null_1)>
Query was executed successfully

SCIDB QUERY : <remove(null_val)>
Query was executed successfully

